[
  {
    "settings": {
      "openEditInWindow": false,
      "openEditInWindow.popup": false,
      "windowPosition": {},
      "show-badge": true,
      "disableAll": false,
      "exposeIframes": false,
      "newStyleAsUsercss": false,
      "styleViaXhr": false,
      "patchCsp": false,
      "config.autosave": true,
      "popup.breadcrumbs": true,
      "popup.breadcrumbs.usePath": false,
      "popup.enabledFirst": true,
      "popup.stylesFirst": true,
      "popup.autoResort": false,
      "popup.borders": false,
      "popup.findStylesInline": true,
      "popup.findSort": "u",
      "manage.onlyEnabled": false,
      "manage.onlyLocal": false,
      "manage.onlyUsercss": false,
      "manage.onlyEnabled.invert": false,
      "manage.onlyLocal.invert": false,
      "manage.onlyUsercss.invert": false,
      "manage.actions.expanded": true,
      "manage.backup.expanded": true,
      "manage.filters.expanded": true,
      "manage.newUI": true,
      "manage.newUI.favicons": false,
      "manage.newUI.faviconsGray": true,
      "manage.newUI.targets": 3,
      "manage.newUI.sort": "title,asc",
      "editor.options": {},
      "editor.toc.expanded": true,
      "editor.options.expanded": true,
      "editor.lint.expanded": true,
      "editor.publish.expanded": true,
      "editor.lineWrapping": true,
      "editor.smartIndent": true,
      "editor.indentWithTabs": false,
      "editor.tabSize": 4,
      "editor.keyMap": "default",
      "editor.theme": "default",
      "editor.beautify": {
        "selector_separator_newline": true,
        "newline_before_open_brace": false,
        "newline_after_open_brace": true,
        "newline_between_properties": true,
        "newline_before_close_brace": true,
        "newline_between_rules": false,
        "preserve_newlines": true,
        "end_with_newline": false,
        "indent_conditional": true
      },
      "editor.beautify.hotkey": "",
      "editor.lintDelay": 300,
      "editor.linter": "csslint",
      "editor.lintReportDelay": 500,
      "editor.matchHighlight": "token",
      "editor.autoCloseBrackets": true,
      "editor.autocompleteOnTyping": false,
      "editor.contextDelete": null,
      "editor.selectByTokens": true,
      "editor.appliesToLineWidget": true,
      "editor.livePreview": true,
      "editor.colorpicker": true,
      "editor.colorpicker.hexUppercase": false,
      "editor.colorpicker.hotkey": "",
      "editor.colorpicker.color": "#333",
      "editor.colorpicker.maxHeight": 300,
      "hotkey._execute_browser_action": "",
      "hotkey.openManage": "",
      "hotkey.styleDisableAll": "",
      "sync.enabled": "none",
      "iconset": 0,
      "badgeDisabled": "#8B0000",
      "badgeNormal": "#006666",
      "popupWidth": 246,
      "updateInterval": 24
    }
  },
  {
    "enabled": true,
    "updateUrl": null,
    "url": null,
    "installDate": 1641173860000,
    "sections": [
      {
        "code": "@charset \"UTF-8\";\n.video-js {\n  color: #c6c8d1;\n}\n.video-js .vjs-load-progress, .video-js .vjs-load-progress div {\n  background-color: #6b7089;\n}\n.video-js .vjs-progress-control .vjs-mouse-display {\n  background-color: #84a0c6;\n}\n.video-js .vjs-slider {\n  background-color: #16182180;\n}\n.video-js.player-style-invidious .vjs-play-progress {\n  background-color: #84a0c6;\n}\n.video-js .vjs-control-bar, .vjs-menu-button-popup .vjs-menu .vjs-menu-content {\n  background-color: #6b708999;\n}\n.video-js .vjs-slider:hover, .video-js button:hover {\n  color: #84a0c6;\n}\nvideo {\n   background-color: #161821 !important;\n}\n.vjs-menu li.vjs-selected, .vjs-menu li.vjs-selected:focus, .vjs-menu li.vjs-selected:hover {\n  background-color: #84a0c6bf;\n}\nbody.dark-theme a:not(.index-link),\nbody.dark-theme i {\n  color: #c6c8d1 !important;\n}\nbody.dark-theme a:not(.index-link):not(.index-link):hover,\nbody.dark-theme i:not(.index-link):hover {\n  color: #84a0c6 !important;\n}\nbody.dark-theme > .pure-g {\n  background: #161821 !important;\n}\n.video-js .vjs-big-play-button:focus, .video-js:hover .vjs-big-play-button {\n  background-color: #84a0c6;\n}\n.video-js .vjs-big-play-button:hover {\n  background-color: #fff;\n}\n.video-js .vjs-big-play-button {\n  border-radius: 1em;\n  width: 1.63332em;\n  height: 1.63332em;\n  background-color: #6b7089b3;\n  top: calc(50% - 0.81666em);\n  left: calc(50% - 0.81666em);\n  border: unset;\n}\n#filters{\n  margin-left: 15px;\n}\nbody.dark-theme .feed-menu {\n  background: #1e2132 !important;\n  border-color: #1e2132 !important;\n}\nbody.dark-theme .feed-menu-item:hover {\n  background: #161821;\n}\nbody.dark-theme .searchbar > form input {\n  background: #161821 !important;\n  color: #c6c8d1 !important;\n  border-color: #161821 !important;\n}\nbody.dark-theme .navbar {\n  background: #1e2132;\n  border-color: #1e2132 !important;\n}\nbody.dark-theme .user-field > div:nth-child(5) > form[action^=\"/signout\"] > a,\nbody.dark-theme a[href^=\"/login\"] {\n  display: none;\n  background: #84a0c6;\n}\nbody.dark-theme .user-field > div:nth-child(5) > form[action^=\"/signout\"] > a:hover,\nbody.dark-theme a[href^=\"/login\"]:hover {\n  background: #91acd1;\n  color: #c6c8d1 !important;\n}\nbody.dark-theme .pure-g .pure-u-1.pure-u-md-1-4 .h-box:hover {\n  background: #84a0c60f;\n}\nbody.dark-theme .pure-g .pure-u-1.pure-u-md-1-4 .h-box > a .length {\n  background: #6b708996;\n}\nbody.dark-theme .pure-g .pure-u-1.pure-u-md-1-4 .h-box > a > p {\n  color: #84a0c6;\n}\nbody.dark-theme .pure-g .pure-u-1.pure-u-md-1-4 .h-box > .video-card-row:nth-child(3) {\n  color: #c6c8d1;\n}\nbody.dark-theme .pure-g .pure-u-1.pure-u-md-1-4 .h-box .channel-name {\n  color: #c6c8d1 !important;\n}\nbody.dark-theme .pure-g .pure-u-1.pure-u-md-1-4 .h-box .channel-name:hover {\n  color: white !important;\n}\nbody.dark-theme #player-container {\n  background: #161821 !important;\n}\nbody.dark-theme h1,\nbody.dark-theme h2,\nbody.dark-theme h3,\nbody.dark-theme h4 {\n  color: #c6c8d1 !important;\n}\nbody.dark-theme .feed-menu ~ center {\n  background: #6b7089;\n}\nbody.no-theme a:not(.index-link),\nbody.no-theme i {\n  color: #333 !important;\n}\nbody.no-theme a:not(.index-link):not(.index-link):hover,\nbody.no-theme i:not(.index-link):hover {\n  color: #111 !important;\n}\nbody.no-theme > .pure-g {\n  background: #f8f8f8 !important;\n}\nbody.no-theme .feed-menu {\n  background: #ebebeb !important;\n  border-color: #d1d1d1 !important;\n}\nbody.no-theme .feed-menu-item:hover {\n  background: #e1e1e1;\n}\nbody.no-theme .searchbar > form input {\n  background: #ebebeb !important;\n  color: #333 !important;\n  border-color: #e1e1e1 !important;\n}\nbody.no-theme .navbar {\n  background: #efefef;\n  border-color: #d1d1d1 !important;\n}\nbody.no-theme .user-field > div:nth-child(5) > form[action^=\"/signout\"] > a,\nbody.no-theme a[href^=\"/login\"] {\n  background: #ebebeb;\n}\nbody.no-theme .user-field > div:nth-child(5) > form[action^=\"/signout\"] > a:hover,\nbody.no-theme a[href^=\"/login\"]:hover {\n  background: #e1e1e1;\n  color: #111 !important;\n}\nbody.no-theme .pure-g .pure-u-1.pure-u-md-1-4 .h-box:hover {\n  background: rgba(51, 51, 51, 0.05);\n}\nbody.no-theme .pure-g .pure-u-1.pure-u-md-1-4 .h-box > a .length {\n  background: rgba(225, 225, 225, 0.6);\n}\nbody.no-theme .pure-g .pure-u-1.pure-u-md-1-4 .h-box > a > p {\n  color: #111;\n}\nbody.no-theme .pure-g .pure-u-1.pure-u-md-1-4 .h-box > .video-card-row:nth-child(3) {\n  color: #666666;\n}\nbody.no-theme .pure-g .pure-u-1.pure-u-md-1-4 .h-box .channel-name {\n  color: #666666 !important;\n}\nbody.no-theme .pure-g .pure-u-1.pure-u-md-1-4 .h-box .channel-name:hover {\n  color: #111 !important;\n}\nbody.no-theme #player-container {\n  background: #000 !important;\n}\nbody.no-theme h1,\nbody.no-theme h2,\nbody.no-theme h3,\nbody.no-theme h4 {\n  color: #333 !important;\n}\nbody.no-theme .feed-menu ~ center {\n  background: #ebebeb;\n}\nbody.light-theme a:not(.index-link),\nbody.light-theme i {\n  color: #333 !important;\n}\nbody.light-theme a:not(.index-link):not(.index-link):hover,\nbody.light-theme i:not(.index-link):hover {\n  color: #111 !important;\n}\nbody.light-theme > .pure-g {\n  background: #f8f8f8 !important;\n}\nbody.light-theme .feed-menu {\n  background: #ebebeb !important;\n  border-color: #d1d1d1 !important;\n}\nbody.light-theme .feed-menu-item:hover {\n  background: #e1e1e1;\n}\nbody.light-theme .searchbar > form input {\n  background: #ebebeb !important;\n  color: #333 !important;\n  border-color: #e1e1e1 !important;\n}\nbody.light-theme .navbar {\n  background: #efefef;\n  border-color: #d1d1d1 !important;\n}\nbody.light-theme .user-field > div:nth-child(5) > form[action^=\"/signout\"] > a,\nbody.light-theme a[href^=\"/login\"] {\n  background: #ebebeb;\n}\nbody.light-theme .user-field > div:nth-child(5) > form[action^=\"/signout\"] > a:hover,\nbody.light-theme a[href^=\"/login\"]:hover {\n  background: #e1e1e1;\n  color: #111 !important;\n}\nbody.light-theme .pure-g .pure-u-1.pure-u-md-1-4 .h-box:hover {\n  background: rgba(51, 51, 51, 0.05);\n}\nbody.light-theme .pure-g .pure-u-1.pure-u-md-1-4 .h-box > a .length {\n  background: rgba(225, 225, 225, 0.6);\n}\nbody.light-theme .pure-g .pure-u-1.pure-u-md-1-4 .h-box > a > p {\n  color: #111;\n}\nbody.light-theme .pure-g .pure-u-1.pure-u-md-1-4 .h-box > .video-card-row:nth-child(3) {\n  color: #666666;\n}\nbody.light-theme .pure-g .pure-u-1.pure-u-md-1-4 .h-box .channel-name {\n  color: #666666 !important;\n}\nbody.light-theme .pure-g .pure-u-1.pure-u-md-1-4 .h-box .channel-name:hover {\n  color: #111 !important;\n}\nbody.light-theme #player-container {\n  background: #000 !important;\n}\nbody.light-theme h1,\nbody.light-theme h2,\nbody.light-theme h3,\nbody.light-theme h4 {\n  color: #333 !important;\n}\nbody.light-theme .feed-menu ~ center {\n  background: #ebebeb;\n}\nbody .pure-u-1.pure-u-md-2-24 {\n  display: none;\n}\nbody > .pure-g {\n  justify-content: center;\n  align-items: center;\n  transition: background 0.3s ease-in-out, border 0.3s ease-in-out;\n}\nbody > .pure-g > .pure-u-md-20-24 {\n  width: unset;\n  align-items: center;\n}\nbody > .pure-g > .pure-u-md-20-24 > div:nth-child(3) {\n  width: 95%;\n  max-width: 1400px;\n  padding-top: 5px;\n}\nbody > .pure-g > .pure-u-md-20-24 > div:nth-child(3) > .pure-u-1.pure-u-md-1-4 {\n  margin-top: 30px;\n}\nbody .feed-menu {\n  width: 100vw;\n  border-bottom: 1px solid #161821;\n  padding: 5px 0;\n  transition: background 0.3s ease-in-out, border 0.3s ease-in-out;\n}\nbody .feed-menu-item {\n  font-family: \"Cousine Nerd Font\" !important;\n  text-transform: capitalize;\n  border-radius: 5px;\n}\nbody .searchbar > form input {\n  font-family: \"Cousine Nerd Font\" !important;\n  padding: 5px 12px !important;\n  margin: 0 !important;\n  border-radius: 2px !important;\n  transition: background 0.3s ease-in-out, border 0.3s ease-in-out;\n}\nbody .searchbar > form input::placeholder {\n  text-transform: capitalize;\n}\nbody .navbar {\n  width: calc(100vw - 100px);\n  margin: 0;\n  padding: 1rem 50px;\n  border-bottom: 1px solid #313030;\n  transition: background 0.3s ease-in-out, border 0.3s ease-in-out;\n}\nbody .index-link {\n  text-transform: none;\n  font-family: \"Cousine Nerd Font\" !important;\n  background: #84a0c6 !important;\n  color: #c6c8d1 !important;\n  padding: 5px 7px !important;\n  border-radius: 4px;\n  transition: 0.3s all;\n}\nbody .index-link:hover {\n  background: #91acd1 !important;\n  color: #c6c8d1 !important;\n}\nbody .user-field > div:nth-child(3),\nbody #notification_ticker {\n  transform: scale(1.25);\n}\nbody .user-field > div:nth-child(5) > form[action^=\"/signout\"] > a,\nbody a[href^=\"/login\"] {\n  font-family: \"Cousine Nerd Font\" !important;\n  padding: 5px 7px !important;\n  border-radius: 5px;\n  transition: 0.3s all;\n}\nbody .user-field > div:nth-child(5) > form[action^=\"/signout\"] > a:hover,\nbody a[href^=\"/login\"]:hover {\n  transform: scale(1.05);\n}\nbody .pure-g .pure-u-1.pure-u-md-1-4 .h-box {\n  padding: 7px;\n  border-radius: 3px;\n  transition: all 0.24s cubic-bezier(0.45, 0.7, 0.51, 1.1);\n  margin: 0 10px;\n}\nbody .pure-g .pure-u-1.pure-u-md-1-4 .h-box:hover {\n  transform: scale(1.05);\n}\nbody .pure-g .pure-u-1.pure-u-md-1-4 .h-box > a .length {\n  font-size: 12px;\n}\nbody .pure-g .pure-u-1.pure-u-md-1-4 .h-box > a > p {\n  font-family: \"Cousine Nerd Font\";\n  font-weight: 600;\n  margin: 10px 0 0 0 !important;\n}\nbody .pure-g .pure-u-1.pure-u-md-1-4 .h-box > .video-card-row:nth-child(2) {\n  margin: 10px 0 0 0;\n}\nbody .pure-g .pure-u-1.pure-u-md-1-4 .h-box > .video-card-row:nth-child(3) {\n  margin: 0;\n  font-weight: 500 !important;\n}\nbody .pure-g .pure-u-1.pure-u-md-1-4 .h-box > .video-card-row:nth-child(3) > .flex-right, body .pure-g .pure-u-1.pure-u-md-1-4 .h-box > .video-card-row:nth-child(3) > .flex-left {\n  flex: none;\n}\nbody .pure-g .pure-u-1.pure-u-md-1-4 .h-box > .video-card-row:nth-child(3) > .flex-left > p::after {\n  content: \" •\";\n  margin-right: 3px;\n}\nbody .pure-g .pure-u-1.pure-u-md-1-4 .h-box > .video-card-row:nth-child(3) p {\n  font-weight: 500 !important;\n}\nbody #player-container {\n  width: 100%;\n  margin: 0 !important;\n}\nbody h1,\nbody h2,\nbody h3,\nbody h4 {\n  font-family: \"Cousine Nerd Font\" !important;\n}\nbody hr {\n  display: none;\n}\nbody hr ~ div.pure-g.h-box.v-box .pure-u-1.pure-u-lg-1-5:nth-child(3) {\n  width: 90vw;\n}\nbody .feed-menu ~ center {\n  font-family: \"Cousine Nerd Font\" !important;\n  margin: -5px 0 10px 0;\n  padding: 5px;\n  border-radius: 3px;\n}\nbody .vjs-control-bar {\n  width: calc(84% - 16px) !important;\n  margin: 5px auto;\n  border-radius: 5px;\n}\n\n/*# sourceMappingURL=main.css.map */",
        "start": 768,
        "domains": [
          "yewtu.be",
          "invidio.us",
          "invidious.snopyta.org",
          "invidious.kavin.rocks",
          "invidious-us.kavin.rocks",
          "invidious-jp.kavin.rocks",
          "vid.puffyan.us",
          "invidious.osi.kr",
          "invidio.xamh.de",
          "youtube.076.ne.jp",
          "yt.didw.to",
          "yt.artemislena.eu",
          "yt.mstdn.social",
          "inv.riverside.rocks",
          "vid.mint.lgbt",
          "invidious.namazso.eu",
          "inv.cthd.icu",
          "invidious.mutahar.rocks"
        ]
      }
    ],
    "sourceCode": "/* ==UserStyle==\n@name         Material Invidious\n@version      20211230.17.25\n@namespace    userstyles.world/user/pasc4le\n@description  A simple re-style for Invidius instances.\n@author       pasc4le\n@license      MIT\n==/UserStyle== */\n\n@-moz-document domain(\"yewtu.be\"), domain(\"invidio.us\"), domain(\"invidious.snopyta.org\"), domain(\"invidious.kavin.rocks\"), domain(\"invidious-us.kavin.rocks\"), domain(\"invidious-jp.kavin.rocks\"), domain(\"vid.puffyan.us\"), domain(\"invidious.osi.kr\"), domain(\"invidio.xamh.de\"), domain(\"youtube.076.ne.jp\"), domain(\"yt.didw.to\"), domain(\"yt.artemislena.eu\"), domain(\"yt.mstdn.social\"), domain(\"inv.riverside.rocks\"), domain(\"vid.mint.lgbt\"), domain(\"invidious.namazso.eu\"), domain(\"inv.cthd.icu\"), domain(\"invidious.mutahar.rocks\") {\n@charset \"UTF-8\";\n.video-js {\n  color: #c6c8d1;\n}\n.video-js .vjs-load-progress, .video-js .vjs-load-progress div {\n  background-color: #6b7089;\n}\n.video-js .vjs-progress-control .vjs-mouse-display {\n  background-color: #84a0c6;\n}\n.video-js .vjs-slider {\n  background-color: #16182180;\n}\n.video-js.player-style-invidious .vjs-play-progress {\n  background-color: #84a0c6;\n}\n.video-js .vjs-control-bar, .vjs-menu-button-popup .vjs-menu .vjs-menu-content {\n  background-color: #6b708999;\n}\n.video-js .vjs-slider:hover, .video-js button:hover {\n  color: #84a0c6;\n}\nvideo {\n   background-color: #161821 !important;\n}\n.vjs-menu li.vjs-selected, .vjs-menu li.vjs-selected:focus, .vjs-menu li.vjs-selected:hover {\n  background-color: #84a0c6bf;\n}\nbody.dark-theme a:not(.index-link),\nbody.dark-theme i {\n  color: #c6c8d1 !important;\n}\nbody.dark-theme a:not(.index-link):not(.index-link):hover,\nbody.dark-theme i:not(.index-link):hover {\n  color: #84a0c6 !important;\n}\nbody.dark-theme > .pure-g {\n  background: #161821 !important;\n}\n.video-js .vjs-big-play-button:focus, .video-js:hover .vjs-big-play-button {\n  background-color: #84a0c6;\n}\n.video-js .vjs-big-play-button:hover {\n  background-color: #fff;\n}\n.video-js .vjs-big-play-button {\n  border-radius: 1em;\n  width: 1.63332em;\n  height: 1.63332em;\n  background-color: #6b7089b3;\n  top: calc(50% - 0.81666em);\n  left: calc(50% - 0.81666em);\n  border: unset;\n}\n#filters{\n  margin-left: 15px;\n}\nbody.dark-theme .feed-menu {\n  background: #1e2132 !important;\n  border-color: #1e2132 !important;\n}\nbody.dark-theme .feed-menu-item:hover {\n  background: #161821;\n}\nbody.dark-theme .searchbar > form input {\n  background: #161821 !important;\n  color: #c6c8d1 !important;\n  border-color: #161821 !important;\n}\nbody.dark-theme .navbar {\n  background: #1e2132;\n  border-color: #1e2132 !important;\n}\nbody.dark-theme .user-field > div:nth-child(5) > form[action^=\"/signout\"] > a,\nbody.dark-theme a[href^=\"/login\"] {\n  display: none;\n  background: #84a0c6;\n}\nbody.dark-theme .user-field > div:nth-child(5) > form[action^=\"/signout\"] > a:hover,\nbody.dark-theme a[href^=\"/login\"]:hover {\n  background: #91acd1;\n  color: #c6c8d1 !important;\n}\nbody.dark-theme .pure-g .pure-u-1.pure-u-md-1-4 .h-box:hover {\n  background: #84a0c60f;\n}\nbody.dark-theme .pure-g .pure-u-1.pure-u-md-1-4 .h-box > a .length {\n  background: #6b708996;\n}\nbody.dark-theme .pure-g .pure-u-1.pure-u-md-1-4 .h-box > a > p {\n  color: #84a0c6;\n}\nbody.dark-theme .pure-g .pure-u-1.pure-u-md-1-4 .h-box > .video-card-row:nth-child(3) {\n  color: #c6c8d1;\n}\nbody.dark-theme .pure-g .pure-u-1.pure-u-md-1-4 .h-box .channel-name {\n  color: #c6c8d1 !important;\n}\nbody.dark-theme .pure-g .pure-u-1.pure-u-md-1-4 .h-box .channel-name:hover {\n  color: white !important;\n}\nbody.dark-theme #player-container {\n  background: #161821 !important;\n}\nbody.dark-theme h1,\nbody.dark-theme h2,\nbody.dark-theme h3,\nbody.dark-theme h4 {\n  color: #c6c8d1 !important;\n}\nbody.dark-theme .feed-menu ~ center {\n  background: #6b7089;\n}\nbody.no-theme a:not(.index-link),\nbody.no-theme i {\n  color: #333 !important;\n}\nbody.no-theme a:not(.index-link):not(.index-link):hover,\nbody.no-theme i:not(.index-link):hover {\n  color: #111 !important;\n}\nbody.no-theme > .pure-g {\n  background: #f8f8f8 !important;\n}\nbody.no-theme .feed-menu {\n  background: #ebebeb !important;\n  border-color: #d1d1d1 !important;\n}\nbody.no-theme .feed-menu-item:hover {\n  background: #e1e1e1;\n}\nbody.no-theme .searchbar > form input {\n  background: #ebebeb !important;\n  color: #333 !important;\n  border-color: #e1e1e1 !important;\n}\nbody.no-theme .navbar {\n  background: #efefef;\n  border-color: #d1d1d1 !important;\n}\nbody.no-theme .user-field > div:nth-child(5) > form[action^=\"/signout\"] > a,\nbody.no-theme a[href^=\"/login\"] {\n  background: #ebebeb;\n}\nbody.no-theme .user-field > div:nth-child(5) > form[action^=\"/signout\"] > a:hover,\nbody.no-theme a[href^=\"/login\"]:hover {\n  background: #e1e1e1;\n  color: #111 !important;\n}\nbody.no-theme .pure-g .pure-u-1.pure-u-md-1-4 .h-box:hover {\n  background: rgba(51, 51, 51, 0.05);\n}\nbody.no-theme .pure-g .pure-u-1.pure-u-md-1-4 .h-box > a .length {\n  background: rgba(225, 225, 225, 0.6);\n}\nbody.no-theme .pure-g .pure-u-1.pure-u-md-1-4 .h-box > a > p {\n  color: #111;\n}\nbody.no-theme .pure-g .pure-u-1.pure-u-md-1-4 .h-box > .video-card-row:nth-child(3) {\n  color: #666666;\n}\nbody.no-theme .pure-g .pure-u-1.pure-u-md-1-4 .h-box .channel-name {\n  color: #666666 !important;\n}\nbody.no-theme .pure-g .pure-u-1.pure-u-md-1-4 .h-box .channel-name:hover {\n  color: #111 !important;\n}\nbody.no-theme #player-container {\n  background: #000 !important;\n}\nbody.no-theme h1,\nbody.no-theme h2,\nbody.no-theme h3,\nbody.no-theme h4 {\n  color: #333 !important;\n}\nbody.no-theme .feed-menu ~ center {\n  background: #ebebeb;\n}\nbody.light-theme a:not(.index-link),\nbody.light-theme i {\n  color: #333 !important;\n}\nbody.light-theme a:not(.index-link):not(.index-link):hover,\nbody.light-theme i:not(.index-link):hover {\n  color: #111 !important;\n}\nbody.light-theme > .pure-g {\n  background: #f8f8f8 !important;\n}\nbody.light-theme .feed-menu {\n  background: #ebebeb !important;\n  border-color: #d1d1d1 !important;\n}\nbody.light-theme .feed-menu-item:hover {\n  background: #e1e1e1;\n}\nbody.light-theme .searchbar > form input {\n  background: #ebebeb !important;\n  color: #333 !important;\n  border-color: #e1e1e1 !important;\n}\nbody.light-theme .navbar {\n  background: #efefef;\n  border-color: #d1d1d1 !important;\n}\nbody.light-theme .user-field > div:nth-child(5) > form[action^=\"/signout\"] > a,\nbody.light-theme a[href^=\"/login\"] {\n  background: #ebebeb;\n}\nbody.light-theme .user-field > div:nth-child(5) > form[action^=\"/signout\"] > a:hover,\nbody.light-theme a[href^=\"/login\"]:hover {\n  background: #e1e1e1;\n  color: #111 !important;\n}\nbody.light-theme .pure-g .pure-u-1.pure-u-md-1-4 .h-box:hover {\n  background: rgba(51, 51, 51, 0.05);\n}\nbody.light-theme .pure-g .pure-u-1.pure-u-md-1-4 .h-box > a .length {\n  background: rgba(225, 225, 225, 0.6);\n}\nbody.light-theme .pure-g .pure-u-1.pure-u-md-1-4 .h-box > a > p {\n  color: #111;\n}\nbody.light-theme .pure-g .pure-u-1.pure-u-md-1-4 .h-box > .video-card-row:nth-child(3) {\n  color: #666666;\n}\nbody.light-theme .pure-g .pure-u-1.pure-u-md-1-4 .h-box .channel-name {\n  color: #666666 !important;\n}\nbody.light-theme .pure-g .pure-u-1.pure-u-md-1-4 .h-box .channel-name:hover {\n  color: #111 !important;\n}\nbody.light-theme #player-container {\n  background: #000 !important;\n}\nbody.light-theme h1,\nbody.light-theme h2,\nbody.light-theme h3,\nbody.light-theme h4 {\n  color: #333 !important;\n}\nbody.light-theme .feed-menu ~ center {\n  background: #ebebeb;\n}\nbody .pure-u-1.pure-u-md-2-24 {\n  display: none;\n}\nbody > .pure-g {\n  justify-content: center;\n  align-items: center;\n  transition: background 0.3s ease-in-out, border 0.3s ease-in-out;\n}\nbody > .pure-g > .pure-u-md-20-24 {\n  width: unset;\n  align-items: center;\n}\nbody > .pure-g > .pure-u-md-20-24 > div:nth-child(3) {\n  width: 95%;\n  max-width: 1400px;\n  padding-top: 5px;\n}\nbody > .pure-g > .pure-u-md-20-24 > div:nth-child(3) > .pure-u-1.pure-u-md-1-4 {\n  margin-top: 30px;\n}\nbody .feed-menu {\n  width: 100vw;\n  border-bottom: 1px solid #161821;\n  padding: 5px 0;\n  transition: background 0.3s ease-in-out, border 0.3s ease-in-out;\n}\nbody .feed-menu-item {\n  font-family: \"Cousine Nerd Font\" !important;\n  text-transform: capitalize;\n  border-radius: 5px;\n}\nbody .searchbar > form input {\n  font-family: \"Cousine Nerd Font\" !important;\n  padding: 5px 12px !important;\n  margin: 0 !important;\n  border-radius: 2px !important;\n  transition: background 0.3s ease-in-out, border 0.3s ease-in-out;\n}\nbody .searchbar > form input::placeholder {\n  text-transform: capitalize;\n}\nbody .navbar {\n  width: calc(100vw - 100px);\n  margin: 0;\n  padding: 1rem 50px;\n  border-bottom: 1px solid #313030;\n  transition: background 0.3s ease-in-out, border 0.3s ease-in-out;\n}\nbody .index-link {\n  text-transform: none;\n  font-family: \"Cousine Nerd Font\" !important;\n  background: #84a0c6 !important;\n  color: #c6c8d1 !important;\n  padding: 5px 7px !important;\n  border-radius: 4px;\n  transition: 0.3s all;\n}\nbody .index-link:hover {\n  background: #91acd1 !important;\n  color: #c6c8d1 !important;\n}\nbody .user-field > div:nth-child(3),\nbody #notification_ticker {\n  transform: scale(1.25);\n}\nbody .user-field > div:nth-child(5) > form[action^=\"/signout\"] > a,\nbody a[href^=\"/login\"] {\n  font-family: \"Cousine Nerd Font\" !important;\n  padding: 5px 7px !important;\n  border-radius: 5px;\n  transition: 0.3s all;\n}\nbody .user-field > div:nth-child(5) > form[action^=\"/signout\"] > a:hover,\nbody a[href^=\"/login\"]:hover {\n  transform: scale(1.05);\n}\nbody .pure-g .pure-u-1.pure-u-md-1-4 .h-box {\n  padding: 7px;\n  border-radius: 3px;\n  transition: all 0.24s cubic-bezier(0.45, 0.7, 0.51, 1.1);\n  margin: 0 10px;\n}\nbody .pure-g .pure-u-1.pure-u-md-1-4 .h-box:hover {\n  transform: scale(1.05);\n}\nbody .pure-g .pure-u-1.pure-u-md-1-4 .h-box > a .length {\n  font-size: 12px;\n}\nbody .pure-g .pure-u-1.pure-u-md-1-4 .h-box > a > p {\n  font-family: \"Cousine Nerd Font\";\n  font-weight: 600;\n  margin: 10px 0 0 0 !important;\n}\nbody .pure-g .pure-u-1.pure-u-md-1-4 .h-box > .video-card-row:nth-child(2) {\n  margin: 10px 0 0 0;\n}\nbody .pure-g .pure-u-1.pure-u-md-1-4 .h-box > .video-card-row:nth-child(3) {\n  margin: 0;\n  font-weight: 500 !important;\n}\nbody .pure-g .pure-u-1.pure-u-md-1-4 .h-box > .video-card-row:nth-child(3) > .flex-right, body .pure-g .pure-u-1.pure-u-md-1-4 .h-box > .video-card-row:nth-child(3) > .flex-left {\n  flex: none;\n}\nbody .pure-g .pure-u-1.pure-u-md-1-4 .h-box > .video-card-row:nth-child(3) > .flex-left > p::after {\n  content: \" •\";\n  margin-right: 3px;\n}\nbody .pure-g .pure-u-1.pure-u-md-1-4 .h-box > .video-card-row:nth-child(3) p {\n  font-weight: 500 !important;\n}\nbody #player-container {\n  width: 100%;\n  margin: 0 !important;\n}\nbody h1,\nbody h2,\nbody h3,\nbody h4 {\n  font-family: \"Cousine Nerd Font\" !important;\n}\nbody hr {\n  display: none;\n}\nbody hr ~ div.pure-g.h-box.v-box .pure-u-1.pure-u-lg-1-5:nth-child(3) {\n  width: 90vw;\n}\nbody .feed-menu ~ center {\n  font-family: \"Cousine Nerd Font\" !important;\n  margin: -5px 0 10px 0;\n  padding: 5px;\n  border-radius: 3px;\n}\nbody .vjs-control-bar {\n  width: calc(84% - 16px) !important;\n  margin: 5px auto;\n  border-radius: 5px;\n}\n\n/*# sourceMappingURL=main.css.map */\n\n}",
    "usercssData": {
      "name": "Material Invidious",
      "version": "20211230.17.25",
      "namespace": "userstyles.world/user/pasc4le",
      "description": "A simple re-style for Invidius instances.",
      "author": "pasc4le",
      "license": "MIT"
    },
    "author": "pasc4le",
    "description": "A simple re-style for Invidius instances.",
    "name": "Material Invidious",
    "originalDigest": "82eb1bb024ed2ab7b78668e057124762ae12d1e2",
    "_id": "cdc7f2c0-c08f-49a0-88cb-4e2eeae916c2",
    "_rev": 1641183163000,
    "id": 2,
    "_usw": {},
    "updateDate": 1641183163000,
    "customName": "Invidious"
  },
  {
    "enabled": true,
    "updateUrl": "https://userstyles.world/api/style/498.user.css",
    "url": "https://github.com/blyad2137/stylus-modern-dark-theme",
    "installDate": 1641173870500,
    "sections": [
      {
        "code": "::-webkit-scrollbar-track {\n             -webkit-box-shadow: inset 0 0 0px rgba(0, 0, 0, 0.3);\n             border-radius: 0px;\n             background-color: #212121;\n        }\n        html[hide-scrollbar=\"true\"] ::-webkit-scrollbar{display:none}\n        ::-webkit-scrollbar {\n             width: 10px;\n             background-color: #212121;\n        }\n        ::-webkit-scrollbar-thumb {\n             border-radius: 0px;\n             background-color: #808080;\n\t\t\t transition: all .18s ease-in-out;\n        }\n\t\t::-webkit-scrollbar-thumb:hover {\n\t\t\t background-color: rgba(0, 255, 201, .5);\n\t\t}\n\t\t:-webkit-scrollbar-corner {\n\t\t\t background: #212121;\n\t\t\t border-color: #212121;\n\t\t}\n\n:root {\n\t--bg-body: #1b1b1b;\n\t--bg-header: #202020;\n\t--bg-button: var(--bg-body);\n\t--bg-button-image: linear-gradient(90deg, #1f1f1f, #1b1b1b);\n\t--bg-button-hover: linear-gradient(90deg, #222, #252525);\n\t--bg-checkbox: rgba(255, 255, 255, 0.1);\n\t--bg-checkbox-hover: #444;\n\t--bg-input: #252525;\n\t--bg-select: var(--bg-input);\n\t--bg-popup: rgba(27, 27, 27, .3);\n\t--bg-gutters: #222;\n\t--bg-CodeMirror: var(--bg-body);\n\t--bg-activeline: rgba(0, 180, 255, .15);\n\t--bg-CodeMirror-hints: var(--bg-popup);\n\t--bg-menu-items: var(--bg-popup);\n\t--bg-search-result-hover: var(--bg-body);\n\t--bg-search-result: #2b2b2b;\n\t--bg-message-box: var(--bg-popup);\n\t--bg-options: var(--bg-popup);\n\t--bg-hotkey-info: var(--bg-popup);\n\t--bg-hotkey: linear-gradient(#5b5b5b, #1b1b1b);\n\t--bg-confirmation: var(--bg-popup);\n\t--bg-warning: #261f1f;\n\t--border-warning: #666;\n\t--border-confirmation: rgba(255, 255, 255, .05);\n\t--border-hotkey: #1b1b1b;\n\t--border-hotkey-info: rgba(255, 255, 255, .12);\n\t--border-search-result: rgba(255, 255, 255, .12);\n\t--border-search-result-hover: rgba(255, 255, 255, .25);\n\t--border-menu-items: rgba(255, 255, 255, .5);\n\t--border-CoderMirror-hints: var(--border-CodeMirror);\n\t--border-CodeMirror: #3a3a3a;\n\t--border-gutters: #373737;\n\t--border-select: var(--border-input);\n\t--border-input: #454545;\n\t--border-checkbox-hover: #828282;\n\t--border-button: #333;\n\t--border-button-hover: #353535;\n\t--border-value: #686868;\n\t--white-200: #dadada;\n\t--grey-900: #9b9b9b;\n}\n.CodeMirror-focused .CodeMirror-selected, .CodeMirror-selected {\n    background: rgba(0, 255, 221, .25);\n}\n.cm-s-default .cm-builtin {\n\tcolor: #9d26ff;\n}\n.cm-s-default .cm-atom {\n\tcolor: #9687ff;\n}\n.cm-s-default .cm-qualifier, .cm-s-default .cm-meta {\n\tcolor: #aaa;\n}\n.cm-s-default .cm-variable-2 {\n\tcolor: #0080ff;\n}\n.cm-s-default .cm-def, .cm-s-default .cm-attribute {\n\tcolor: #00d5ff;\n}\n.cm-s-default .cm-keyword {\n\tcolor: #df00ff;\n}\n.cm-s-default .cm-number {\n\tcolor: #20b77b;\n}\n.cm-s-default .cm-tag {\n\tcolor: #1bbd00;\n}\n.cm-s-default .cm-variable-3, .cm-s-default .cm-type {\n\tcolor: #00b974;\n}\n\n\nbody {\n\tbackground-color: var(--bg-body);\n\tcolor: var(--white-200);\n}\n#header {\n\tbackground-color: var(--bg-header);\n\tborder: none;\n}\nbutton, #popup-options button {\n\tbackground-color: var(--bg-button);\n\tbackground-image: var(--bg-button-image);\n\tborder-radius: 10px;\n\tpadding: 9px;\n\ttransition: all .18s cubic-bezier(0.45, 0.05, 0.55, 0.95);\n\tborder-color: var(--border-button);\n\tcolor: var(--white-200);\n}\nbutton:hover, button:not(:disabled):hover, #popup-options button:hover {\n\tbackground-color: var(--bg-button);\n\tbackground-image: var(--bg-button-hover);\n\tborder-color: var(--border-button-hover);\n}\n.svg-icon:hover, .svg-icon.info, .svg-icon.settings {\n\tfill: #999;\n}\n.svg-icon, .svg-icon.info:hover, .svg-icon.settings:hover {\n\tfill: var(--white-200);\n}\ninput[type=\"checkbox\"]:not(.slider):hover {\n\tbackground-color: var(--bg-checkbox-hover);\n\tborder-color: var(--border-checkbox-hover);\n}\ninput[type=\"checkbox\"]:not(.slider) {\n\tbackground-color: var(--bg-checkbox);\n\tborder-radius: 3px;\n\tborder: 2px solid #737373;\n\theight: 16px;\n\twidth: 16px;\n\tleft: -2px;\n\ttop: -2px;\n}\n.svg-icon.checked {\n\tfill: var(--white-200);\n}\ninput:not([type]), input[type=\"search\"], #options [type=\"number\"], .config-body input[type=\"text\"] {\n\tbackground-color: var(--bg-input);\n\tcolor: var(--white-200);\n\tborder-radius: 7px;\n\tpadding: 5px;\n\theight: 25px;\n\tline-height: 25px;\n\tfont-size: 13px;\n\tborder-color: var(--border-input);\n}\n#basic-info-enabled {\n\ttop: 8px;\n\tleft: 3px;\n\tposition: relative;\n}\nselect, option {\n\tbackground-color: var(--bg-select);\n\tborder-color: var(--border-select);\n\tcolor: var(--white-200);\n\theight: 25px;\n\tfont-size: 13px;\n\tborder-radius: 7px;\n}\n.svg-icon.select-arrow {\n\tfill: var(--white-200);\n\ttop: 5px;\n}\n#help-popup {\n\tbackground-color: var(--bg-popup);\n\tbackdrop-filter: blur(1rem);\n\t-webkit-backdrop-filter: blur(1rem);\n\tborder-radius: 7px;\n}\n#help-popup .title {\n\tbackground-color: rgba(255, 255, 255, .05);\n}\n.keymap-list tr:nth-child(odd) {\n\tbackground-color: rgba(255, 255, 255, .07);\n}\n#toc li {\n\ttransition: all .18s ease-in-out;\n}\n#toc li:hover {\n\tborder-radius: 3px;\n\tpadding-left: 2px;\n}\n.CodeMirror-gutters {\n\tbackground-color: var(--bg-gutters);\n\tborder-color: var(--border-gutters);\n}\n.CodeMirror {\n\tbackground-color: var(--bg-CodeMirror);\n\tborder-color: var(--border-CodeMirror);\n\tcolor: var(--white-200);\n\tborder-radius: 7px;\n}\n.CodeMirror-activeline-background {\n\tbackground-color: var(--bg-activeline);\n\ttransition: all .18s ease-in-out;\n}\n.colorview-swatch::before {\n\tborder-color: #7e7e7e;\n}\n.CodeMirror-cursor {\n\tborder-color: var(--white-200);\n}\na[id=\"find-styles-link\"], a[class=\"write-style-link\"] {\n\tcolor: var(--white-200);\n}\n#installed {\n\tborder-color: rgba(255, 255, 255, .25);\n}\n.entry:nth-child(even) {\n\tbackground-color: rgba(255, 255, 255, .05);\n}\n.entry:nth-child(-n+10):before, .entry:nth-child(11):before {\n\tcolor: #777;\n}\n#installed .style-name .checker {\n\tleft: 6px;\n}\n#installed .style-name .svg-icon.checked {\n\tleft: 8px;\n\ttop: 9px;\n}\n#installed .style-name .checker, #installed .style-name .svg-icon.checked:hover {\n\tbackground-color: var(--bg-checkbox-hover);\n\tborder-color: var(--border-checkbox-hover);\n}\n#basic-info-enabled input {\n\tleft: -2px;\n}\n#basic-info-enabled svg {\n\ttop: -2px;\n\tleft: 2px;\n}\nbody[id=\"stylus-popup\"] {\n\tborder-radius: 7px;\n\tpadding: 7px;\n}\nul[class=\"CodeMirror-hints default\"] {\n\tbackground-color: var(--bg-CodeMirror-hints);\n\tborder-color: var(--border-CoderMirror-hints);\n\tbackdrop-filter: blur(1rem);\n\t-webkit-backdrop-filter: blur(1rem);\n\tborder-radius: 7px;\n\tpadding: 2px;\n}\nul[class=\"CodeMirror-hints default\"] li {\n\tcolor: var(--white-200);\n}\n#installed .actions a svg {\n\tfill: var(--grey-900);\n}\n#installed .actions a:hover svg {\n\tfill: var(--white-200);\n}\n.menu-items-wrapper {\n\tbackground-color: var(--bg-menu-items);\n\tborder-color: var(--border-menu-items);\n\tbackdrop-filter: blur(1rem);\n\t-webkit-backdrop-filter: blur(1rem);\n\tborder-radius: 7px;\n}\n.entry .menu-item:hover, .entry .menu-item:active {\n\tbackground-color: rgba(255, 255, 255, .1);\n}\ninput#disableAll:hover {\n\tbackground-color: rgba(255, 0, 0, .38);\n}\n.unreachable .blocked-info {\n\tborder-color: rgba(255, 255, 255, .25);\n}\n#write-for-frames {\n\tcolor: var(--grey-900);\n}\n#write-for-frames:hover {\n\tcolor: var(--white-200);\n}\n.entry .menu {\n\tbackground-color: rgba(255, 255, 255, .4);\n}\n.add-applies-to .svg-icon, .remove-applies-to .svg-icon {\n\tfill: #6b6b6b;\n}\n.add-applies-to:hover .svg-icon, .remove-applies-to:hover .svg-icon {\n\tfill: var(--white-200);\n}\n.search-result {\n\tbackground-color: var(--bg-search-result);\n\tborder-color: var(--border-search-result);\n\ttransition: all .2s ease-in-out;\n}\n.search-result:hover {\n\tbackground-color: var(--bg-search-result-hover);\n\tborder-color: var(--border-search-result-hover);\n\ttransform: translateY(-5px);\n}\n.search-result-title {\n\tcolor: #ababab;\n}\n.search-result:hover .search-result-title {\n\tcolor: var(--white-200);\n}\n.search-result-meta {\n\tbackground-color: rgba(63, 63, 63, .75);\n}\n.search-result:hover .search-result-meta {\n\tbackground-color: rgba(27, 27, 27, .75);\n}\n#search-results:not([data-empty]):before {\n\tbackground-image: linear-gradient(transparent, rgba(255, 255, 255, .1) 200px);\n}\n.section-editor .section:not(:first-child) {\n\tborder-top: 2px dashed #4b4b4b;\n}\n.filter-selection select {\n\tbackground-color: transparent;\n}\n.filter-selection .select-arrow {\n\ttop: 0px;\n}\n#filters label:hover, #filters .filter-selection:hover {\n\tbackground-color: rgba(112, 112, 112, .2);\n}\n#searchMode {\n\tborder-radius: 0 7px 7px 0;\n}\n#search {\n\tbackground-color: var(--bg-input);\n\tborder-color: var(--border-input);\n\tcolor: var(--white-200);\n\tborder-radius: 7px 0 0 7px;\n\theight: 25px;\n}\n#manage\\.newUI\\.sort {\n\tbackground-color: var(--bg-input);\n\tborder-color: var(--border-input);\n\tcolor: var(--white-200);\n\theight: 25px;\n}\n#sort-wrapper .select-arrow {\n\ttop: 6px;\n}\n#header summary:hover h2 {\n\tborder-color: #4b4b4b;\n}\n.style-name a, .style-edit-link {\n\tcolor: var(--white-200);\n}\n.newUI .entry input[type=\"checkbox\"]:not(.slider) {\n\tleft: 0px !important;\n}\n.newUI .entry .svg-icon.checked, .newUI .entry:hover .svg-icon.checked {\n\tfill: var(--white-200);\n\ttop: 0px !important;\n\tleft: 2px !important;\n}\n.style-info[data-type=version] {\n\tcolor: #ababab;\n}\n.oldUI .disabled h2::after, .entry.usercss .style-name-link::after {\n\tbackground-color: hsla(180, 66%, 66%, .40);\n\tcolor: var(--white-200);\n}\n.entry {\n\tborder-color: #4b4b4b;\n}\n.newUI .entry.odd {\n\tbackground-color: rgba(112, 112, 112, .05);\n}\n.newUI .entry .style-name:hover::before {\n\tbackground: none;\n}\n.newUI .entry.enabled .style-name:hover .style-name-link {\n\tcolor: rgb(0, 187, 187);\n}\n.disabled h2 .style-name-link, .disabled .applies-to, .newUI .disabled.entry .svg-icon {\n\tcolor: #7b7b7b;\n\tfill: #5f5f5f;\n}\n#message-box-title {\n\tbackground-color: rgba(108, 202, 187, .3);\n\tborder-radius: 7px 7px 0 0;\n}\n#message-box > div {\n\tbackground-color: var(--bg-message-box);\n\tbackdrop-filter: blur(1rem);\n\t-webkit-backdrop-filter: blur(1rem);\n\tborder-radius: 7px;\n}\n.config-body label:not(:first-child) {\n\tborder-color: rgba(255, 255, 255, .25);\n}\n#message-box-buttons {\n\tbackground-color: rgba(29, 29, 29, .3);\n\tborder-radius: 0 0 7px 7px;\n}\n#manage-text span a, .disabled a:hover, .config-reset-icon {\n\tcolor: var(--white-200);\n}\n#manage-text span a:hover {\n\tcolor: var(--grey-900);\n}\n.newUI .entry:hover .svg-icon, .newUI .entry .svg-icon, #options-close-icon .svg-icon {\n\tfill: var(--grey-900);\n}\n.newUI .entry:hover .svg-icon:hover, #options-close-icon:hover .svg-icon {\n\tfill: var(--white-200);\n}\n.CodeMirror-guttermarker-subtle {\n\tcolor: #6b6b6b;\n}\n.beautify-options select {\n\tbackground: linear-gradient( 90deg, rgba(255, 255, 255, .05) 18px, rgba(255, 255, 255, .02) 24px);\n}\n.beautify-options > label {\n\tleft: 3px;\n\tmax-width: 150px;\n}\nbody[id=\"stylus-options\"] {\n\tbackground: transparent;\n\tborder-color: rgba(255, 255, 255, .25);\n\tbackdrop-filter: blur(1rem);\n\t-webkit-backdrop-filter: blur(1rem);\n\tborder-radius: 8px;\n}\n#options-title {\n\tborder-color: rgba(255, 255, 255, .25);\n\tbackground-color: rgba(108, 202, 187, .3);\n\tborder-radius: 6px 6px 0 0;\n}\ndiv#options {\n\tbackground-color: var(--bg-options);\n}\n.items div a {\n\tcolor: var(--white-200);\n}\n.items div a:hover {\n\tcolor: var(--grey-900);\n}\n.block {\n\tborder-color: rgba(255, 255, 255, .25);\n}\ndiv#actions {\n\tborder-color: rgba(255, 255, 255, .25);\n\tbackground-color: rgba(255, 255, 255, .05);\n}\ninput[type=\"radio\"] {\n    background: #2d2d2d;\n    border-color: #6b6b6b;\n}\ninput[type=\"radio\"]:checked:after {\n    background-color: #bdbdbd;\n}\n.onoffswitch input:checked + span, .onoffswitch input:checked + span::before {\n    border-color: rgba(0, 255, 193, .3);\n}\n.onoffswitch input:checked + span {\n    background-color: rgba(0, 255, 193, .25);\n}\n.onoffswitch span {\n\tborder-color: rgba(45, 45, 45, .3);\n    background-color: rgba(45, 45, 45, .25);\n}\n.onoffswitch span::before {\n\tbackground-color: #353535;\n}\ninput[type=\"color\"] {\n\tbackground-color: var(--bg-input);\n\tborder-color: rgba(255, 255, 255, .12);\n\tborder-radius: 4px;\n}\n.items label span a {\n\tcolor: var(--white-200);\n}\n.items label span a svg {\n\tfill: #6b6b6b;\n}\n.svg-inline-wrapper:hover .svg-icon {\n\tfill: var(--white-200);\n}\n#message-box-buttons button:not(:disabled):hover {\n    background-color: var(--bg-button-hover);\n    border-color: var(--border-button-hover);\n}\n#search-results .lds-spinner {\n\tfilter: invert(0);\n}\n#hotkey-info div {\n\tbackground-color: var(--bg-hotkey-info);\n\tborder-color: var(--border-hotkey-info);\n\tbackdrop-filter: blur(1rem);\n\t-webkit-backdrop-filter: blur(1rem);\n\tborder-radius: 6px;\n}\n#hotkey-info mark {\n\tbackground: var(--bg-hotkey);\n\tborder-color: var(--border-hotkey);\n}\nmark {\n\tcolor: var(--white-200);\n}\n#hotkey-info[data-active] {\n\tborder-color: var(--border-hotkey);\n\tborder-radius: 7px;\n}\n#hotkey-info div a, .newUI .applies-to .expander, [class=\".external-support\"] {\n\tcolor: var(--white-200);\n}\n#hotkey-info div a:hover, .newUI .applies-to .expander:hover, [class=\".external-support\"]:hover {\n\tcolor: var(--grey-900);\n}\n#hotkey-info div:nth-of-type(2) {\n\tborder-radius: 0 0 6px 6px;\n}\n.newUI .entry {\n\ttransition: all .18s ease-in-out;\n}\n.newUI .entry:hover {\n\tbackground: linear-gradient(to right, hsla(180, 50%, 46%, .2), hsla(180, 23%, 46%, .05) 50%, transparent);\n}\n#confirm > div {\n\tbackground-color: var(--bg-confirmation);\n\tborder-color: var(--border-confirmation);\n\tbackdrop-filter: blur(1rem);\n\t-webkit-backdrop-filter: blur(1rem);\n}\n.warnings {\n\tbackground-color: var(--bg-warning);\n\tborder-color: var(--border-warning);\n}\n.external-link div ul li a, a[id=\"usw-url\"], span.meta-author a, [class=\".external-support\"] {\n\tcolor: #fff;\n}\n.external-link div ul li a:hover, a[id=\"usw-url\"]:hover, [class=\".external-support\"]:hover, span.meta-author a:hover {\n\tcolor: #999;\n}\n[data-error]::after {\n\tcolor: hsl(0, 100%, 43%);\n}\n[data-error] .search-result-meta {\n    background: #6f2f2fcc;\n}\n[data-error], [data-error]:hover {\n    border-color: red;\n    background: #6f2f2fcc;\n}\n#search-replace-dialog[data-type=\"replace\"] button:hover svg, #search-replace-dialog svg:hover {\n\tfill: var(--white-200);\n}\n.config-reset-icon .svg-icon {\n\tfill: #6b6b6b;\n}\n.CodeMirror-line::selection, .CodeMirror-line > span::selection, .CodeMirror-line > span > span::selection { background: #6354e16b; }\n.CodeMirror-line::-moz-selection, .CodeMirror-line > span::-moz-selection, .CodeMirror-line > span > span::-moz-selection { background: #6354e16b; }\n#help-popup .contents a {\n\tcolor: var(--white-200);\n}\n#help-popup .contents a:hover {\n\tcolor: var(--grey-900);\n}\n\n.colorpicker-theme-light {\n\t--main-background-color: var(--bg-body);\n\t--main-border-color: #3b3b3b;\n\t--label-color: var(--grey-900);\n\t--label-color-hover: var(--white-200);\n\t--input-background-color: var(--bg-body);\n\t--input-background-color-hover: #2f2f2f;\n\t--input-background-color-focus: var(--bg-body);\n\t--input-color: #bbb;\n\t--input-color-focus: #fff;\n\t--input-border-color: #4a4a4a;\n\t--input-border-color-focus: #888;\n\t--input-border-color-hover: #bbb;\n\t--invalid-border-color: hsl(0, 100%, 50%);\n\t--invalid-background-color: hsla(0, 100%, 50%, 0.15);\n\t--invalid-color: hsl(0, 100%, 40%);\n}",
        "start": 564,
        "regexps": [
          "chrome-extension://.*",
          "moz-extension://.*"
        ]
      }
    ],
    "sourceCode": "/* ==UserStyle==\n@name           Stylus Modern Dark Theme\n@namespace      github.com/blyad2137/stylus-modern-dark-theme\n@version        1.1.0\n@description    As in title.\n@author         blyad (https://github.com/blyad2137)\n@license        CC BY-NC-SA 4.0\n@homepageURL    https://github.com/blyad2137/stylus-modern-dark-theme\n@supportURL     https://github.com/blyad2137/stylus-modern-dark-theme/issues\n@updateURL      https://userstyles.world/api/style/498.user.css\n==/UserStyle== */\n\n@-moz-document regexp(\"chrome-extension://.*\"), regexp(\"moz-extension://.*\") {\n\t\t::-webkit-scrollbar-track {\n             -webkit-box-shadow: inset 0 0 0px rgba(0, 0, 0, 0.3);\n             border-radius: 0px;\n             background-color: #212121;\n        }\n        html[hide-scrollbar=\"true\"] ::-webkit-scrollbar{display:none}\n        ::-webkit-scrollbar {\n             width: 10px;\n             background-color: #212121;\n        }\n        ::-webkit-scrollbar-thumb {\n             border-radius: 0px;\n             background-color: #808080;\n\t\t\t transition: all .18s ease-in-out;\n        }\n\t\t::-webkit-scrollbar-thumb:hover {\n\t\t\t background-color: rgba(0, 255, 201, .5);\n\t\t}\n\t\t:-webkit-scrollbar-corner {\n\t\t\t background: #212121;\n\t\t\t border-color: #212121;\n\t\t}\n\n:root {\n\t--bg-body: #1b1b1b;\n\t--bg-header: #202020;\n\t--bg-button: var(--bg-body);\n\t--bg-button-image: linear-gradient(90deg, #1f1f1f, #1b1b1b);\n\t--bg-button-hover: linear-gradient(90deg, #222, #252525);\n\t--bg-checkbox: rgba(255, 255, 255, 0.1);\n\t--bg-checkbox-hover: #444;\n\t--bg-input: #252525;\n\t--bg-select: var(--bg-input);\n\t--bg-popup: rgba(27, 27, 27, .3);\n\t--bg-gutters: #222;\n\t--bg-CodeMirror: var(--bg-body);\n\t--bg-activeline: rgba(0, 180, 255, .15);\n\t--bg-CodeMirror-hints: var(--bg-popup);\n\t--bg-menu-items: var(--bg-popup);\n\t--bg-search-result-hover: var(--bg-body);\n\t--bg-search-result: #2b2b2b;\n\t--bg-message-box: var(--bg-popup);\n\t--bg-options: var(--bg-popup);\n\t--bg-hotkey-info: var(--bg-popup);\n\t--bg-hotkey: linear-gradient(#5b5b5b, #1b1b1b);\n\t--bg-confirmation: var(--bg-popup);\n\t--bg-warning: #261f1f;\n\t--border-warning: #666;\n\t--border-confirmation: rgba(255, 255, 255, .05);\n\t--border-hotkey: #1b1b1b;\n\t--border-hotkey-info: rgba(255, 255, 255, .12);\n\t--border-search-result: rgba(255, 255, 255, .12);\n\t--border-search-result-hover: rgba(255, 255, 255, .25);\n\t--border-menu-items: rgba(255, 255, 255, .5);\n\t--border-CoderMirror-hints: var(--border-CodeMirror);\n\t--border-CodeMirror: #3a3a3a;\n\t--border-gutters: #373737;\n\t--border-select: var(--border-input);\n\t--border-input: #454545;\n\t--border-checkbox-hover: #828282;\n\t--border-button: #333;\n\t--border-button-hover: #353535;\n\t--border-value: #686868;\n\t--white-200: #dadada;\n\t--grey-900: #9b9b9b;\n}\n.CodeMirror-focused .CodeMirror-selected, .CodeMirror-selected {\n    background: rgba(0, 255, 221, .25);\n}\n.cm-s-default .cm-builtin {\n\tcolor: #9d26ff;\n}\n.cm-s-default .cm-atom {\n\tcolor: #9687ff;\n}\n.cm-s-default .cm-qualifier, .cm-s-default .cm-meta {\n\tcolor: #aaa;\n}\n.cm-s-default .cm-variable-2 {\n\tcolor: #0080ff;\n}\n.cm-s-default .cm-def, .cm-s-default .cm-attribute {\n\tcolor: #00d5ff;\n}\n.cm-s-default .cm-keyword {\n\tcolor: #df00ff;\n}\n.cm-s-default .cm-number {\n\tcolor: #20b77b;\n}\n.cm-s-default .cm-tag {\n\tcolor: #1bbd00;\n}\n.cm-s-default .cm-variable-3, .cm-s-default .cm-type {\n\tcolor: #00b974;\n}\n\n\nbody {\n\tbackground-color: var(--bg-body);\n\tcolor: var(--white-200);\n}\n#header {\n\tbackground-color: var(--bg-header);\n\tborder: none;\n}\nbutton, #popup-options button {\n\tbackground-color: var(--bg-button);\n\tbackground-image: var(--bg-button-image);\n\tborder-radius: 10px;\n\tpadding: 9px;\n\ttransition: all .18s cubic-bezier(0.45, 0.05, 0.55, 0.95);\n\tborder-color: var(--border-button);\n\tcolor: var(--white-200);\n}\nbutton:hover, button:not(:disabled):hover, #popup-options button:hover {\n\tbackground-color: var(--bg-button);\n\tbackground-image: var(--bg-button-hover);\n\tborder-color: var(--border-button-hover);\n}\n.svg-icon:hover, .svg-icon.info, .svg-icon.settings {\n\tfill: #999;\n}\n.svg-icon, .svg-icon.info:hover, .svg-icon.settings:hover {\n\tfill: var(--white-200);\n}\ninput[type=\"checkbox\"]:not(.slider):hover {\n\tbackground-color: var(--bg-checkbox-hover);\n\tborder-color: var(--border-checkbox-hover);\n}\ninput[type=\"checkbox\"]:not(.slider) {\n\tbackground-color: var(--bg-checkbox);\n\tborder-radius: 3px;\n\tborder: 2px solid #737373;\n\theight: 16px;\n\twidth: 16px;\n\tleft: -2px;\n\ttop: -2px;\n}\n.svg-icon.checked {\n\tfill: var(--white-200);\n}\ninput:not([type]), input[type=\"search\"], #options [type=\"number\"], .config-body input[type=\"text\"] {\n\tbackground-color: var(--bg-input);\n\tcolor: var(--white-200);\n\tborder-radius: 7px;\n\tpadding: 5px;\n\theight: 25px;\n\tline-height: 25px;\n\tfont-size: 13px;\n\tborder-color: var(--border-input);\n}\n#basic-info-enabled {\n\ttop: 8px;\n\tleft: 3px;\n\tposition: relative;\n}\nselect, option {\n\tbackground-color: var(--bg-select);\n\tborder-color: var(--border-select);\n\tcolor: var(--white-200);\n\theight: 25px;\n\tfont-size: 13px;\n\tborder-radius: 7px;\n}\n.svg-icon.select-arrow {\n\tfill: var(--white-200);\n\ttop: 5px;\n}\n#help-popup {\n\tbackground-color: var(--bg-popup);\n\tbackdrop-filter: blur(1rem);\n\t-webkit-backdrop-filter: blur(1rem);\n\tborder-radius: 7px;\n}\n#help-popup .title {\n\tbackground-color: rgba(255, 255, 255, .05);\n}\n.keymap-list tr:nth-child(odd) {\n\tbackground-color: rgba(255, 255, 255, .07);\n}\n#toc li {\n\ttransition: all .18s ease-in-out;\n}\n#toc li:hover {\n\tborder-radius: 3px;\n\tpadding-left: 2px;\n}\n.CodeMirror-gutters {\n\tbackground-color: var(--bg-gutters);\n\tborder-color: var(--border-gutters);\n}\n.CodeMirror {\n\tbackground-color: var(--bg-CodeMirror);\n\tborder-color: var(--border-CodeMirror);\n\tcolor: var(--white-200);\n\tborder-radius: 7px;\n}\n.CodeMirror-activeline-background {\n\tbackground-color: var(--bg-activeline);\n\ttransition: all .18s ease-in-out;\n}\n.colorview-swatch::before {\n\tborder-color: #7e7e7e;\n}\n.CodeMirror-cursor {\n\tborder-color: var(--white-200);\n}\na[id=\"find-styles-link\"], a[class=\"write-style-link\"] {\n\tcolor: var(--white-200);\n}\n#installed {\n\tborder-color: rgba(255, 255, 255, .25);\n}\n.entry:nth-child(even) {\n\tbackground-color: rgba(255, 255, 255, .05);\n}\n.entry:nth-child(-n+10):before, .entry:nth-child(11):before {\n\tcolor: #777;\n}\n#installed .style-name .checker {\n\tleft: 6px;\n}\n#installed .style-name .svg-icon.checked {\n\tleft: 8px;\n\ttop: 9px;\n}\n#installed .style-name .checker, #installed .style-name .svg-icon.checked:hover {\n\tbackground-color: var(--bg-checkbox-hover);\n\tborder-color: var(--border-checkbox-hover);\n}\n#basic-info-enabled input {\n\tleft: -2px;\n}\n#basic-info-enabled svg {\n\ttop: -2px;\n\tleft: 2px;\n}\nbody[id=\"stylus-popup\"] {\n\tborder-radius: 7px;\n\tpadding: 7px;\n}\nul[class=\"CodeMirror-hints default\"] {\n\tbackground-color: var(--bg-CodeMirror-hints);\n\tborder-color: var(--border-CoderMirror-hints);\n\tbackdrop-filter: blur(1rem);\n\t-webkit-backdrop-filter: blur(1rem);\n\tborder-radius: 7px;\n\tpadding: 2px;\n}\nul[class=\"CodeMirror-hints default\"] li {\n\tcolor: var(--white-200);\n}\n#installed .actions a svg {\n\tfill: var(--grey-900);\n}\n#installed .actions a:hover svg {\n\tfill: var(--white-200);\n}\n.menu-items-wrapper {\n\tbackground-color: var(--bg-menu-items);\n\tborder-color: var(--border-menu-items);\n\tbackdrop-filter: blur(1rem);\n\t-webkit-backdrop-filter: blur(1rem);\n\tborder-radius: 7px;\n}\n.entry .menu-item:hover, .entry .menu-item:active {\n\tbackground-color: rgba(255, 255, 255, .1);\n}\ninput#disableAll:hover {\n\tbackground-color: rgba(255, 0, 0, .38);\n}\n.unreachable .blocked-info {\n\tborder-color: rgba(255, 255, 255, .25);\n}\n#write-for-frames {\n\tcolor: var(--grey-900);\n}\n#write-for-frames:hover {\n\tcolor: var(--white-200);\n}\n.entry .menu {\n\tbackground-color: rgba(255, 255, 255, .4);\n}\n.add-applies-to .svg-icon, .remove-applies-to .svg-icon {\n\tfill: #6b6b6b;\n}\n.add-applies-to:hover .svg-icon, .remove-applies-to:hover .svg-icon {\n\tfill: var(--white-200);\n}\n.search-result {\n\tbackground-color: var(--bg-search-result);\n\tborder-color: var(--border-search-result);\n\ttransition: all .2s ease-in-out;\n}\n.search-result:hover {\n\tbackground-color: var(--bg-search-result-hover);\n\tborder-color: var(--border-search-result-hover);\n\ttransform: translateY(-5px);\n}\n.search-result-title {\n\tcolor: #ababab;\n}\n.search-result:hover .search-result-title {\n\tcolor: var(--white-200);\n}\n.search-result-meta {\n\tbackground-color: rgba(63, 63, 63, .75);\n}\n.search-result:hover .search-result-meta {\n\tbackground-color: rgba(27, 27, 27, .75);\n}\n#search-results:not([data-empty]):before {\n\tbackground-image: linear-gradient(transparent, rgba(255, 255, 255, .1) 200px);\n}\n.section-editor .section:not(:first-child) {\n\tborder-top: 2px dashed #4b4b4b;\n}\n.filter-selection select {\n\tbackground-color: transparent;\n}\n.filter-selection .select-arrow {\n\ttop: 0px;\n}\n#filters label:hover, #filters .filter-selection:hover {\n\tbackground-color: rgba(112, 112, 112, .2);\n}\n#searchMode {\n\tborder-radius: 0 7px 7px 0;\n}\n#search {\n\tbackground-color: var(--bg-input);\n\tborder-color: var(--border-input);\n\tcolor: var(--white-200);\n\tborder-radius: 7px 0 0 7px;\n\theight: 25px;\n}\n#manage\\.newUI\\.sort {\n\tbackground-color: var(--bg-input);\n\tborder-color: var(--border-input);\n\tcolor: var(--white-200);\n\theight: 25px;\n}\n#sort-wrapper .select-arrow {\n\ttop: 6px;\n}\n#header summary:hover h2 {\n\tborder-color: #4b4b4b;\n}\n.style-name a, .style-edit-link {\n\tcolor: var(--white-200);\n}\n.newUI .entry input[type=\"checkbox\"]:not(.slider) {\n\tleft: 0px !important;\n}\n.newUI .entry .svg-icon.checked, .newUI .entry:hover .svg-icon.checked {\n\tfill: var(--white-200);\n\ttop: 0px !important;\n\tleft: 2px !important;\n}\n.style-info[data-type=version] {\n\tcolor: #ababab;\n}\n.oldUI .disabled h2::after, .entry.usercss .style-name-link::after {\n\tbackground-color: hsla(180, 66%, 66%, .40);\n\tcolor: var(--white-200);\n}\n.entry {\n\tborder-color: #4b4b4b;\n}\n.newUI .entry.odd {\n\tbackground-color: rgba(112, 112, 112, .05);\n}\n.newUI .entry .style-name:hover::before {\n\tbackground: none;\n}\n.newUI .entry.enabled .style-name:hover .style-name-link {\n\tcolor: rgb(0, 187, 187);\n}\n.disabled h2 .style-name-link, .disabled .applies-to, .newUI .disabled.entry .svg-icon {\n\tcolor: #7b7b7b;\n\tfill: #5f5f5f;\n}\n#message-box-title {\n\tbackground-color: rgba(108, 202, 187, .3);\n\tborder-radius: 7px 7px 0 0;\n}\n#message-box > div {\n\tbackground-color: var(--bg-message-box);\n\tbackdrop-filter: blur(1rem);\n\t-webkit-backdrop-filter: blur(1rem);\n\tborder-radius: 7px;\n}\n.config-body label:not(:first-child) {\n\tborder-color: rgba(255, 255, 255, .25);\n}\n#message-box-buttons {\n\tbackground-color: rgba(29, 29, 29, .3);\n\tborder-radius: 0 0 7px 7px;\n}\n#manage-text span a, .disabled a:hover, .config-reset-icon {\n\tcolor: var(--white-200);\n}\n#manage-text span a:hover {\n\tcolor: var(--grey-900);\n}\n.newUI .entry:hover .svg-icon, .newUI .entry .svg-icon, #options-close-icon .svg-icon {\n\tfill: var(--grey-900);\n}\n.newUI .entry:hover .svg-icon:hover, #options-close-icon:hover .svg-icon {\n\tfill: var(--white-200);\n}\n.CodeMirror-guttermarker-subtle {\n\tcolor: #6b6b6b;\n}\n.beautify-options select {\n\tbackground: linear-gradient( 90deg, rgba(255, 255, 255, .05) 18px, rgba(255, 255, 255, .02) 24px);\n}\n.beautify-options > label {\n\tleft: 3px;\n\tmax-width: 150px;\n}\nbody[id=\"stylus-options\"] {\n\tbackground: transparent;\n\tborder-color: rgba(255, 255, 255, .25);\n\tbackdrop-filter: blur(1rem);\n\t-webkit-backdrop-filter: blur(1rem);\n\tborder-radius: 8px;\n}\n#options-title {\n\tborder-color: rgba(255, 255, 255, .25);\n\tbackground-color: rgba(108, 202, 187, .3);\n\tborder-radius: 6px 6px 0 0;\n}\ndiv#options {\n\tbackground-color: var(--bg-options);\n}\n.items div a {\n\tcolor: var(--white-200);\n}\n.items div a:hover {\n\tcolor: var(--grey-900);\n}\n.block {\n\tborder-color: rgba(255, 255, 255, .25);\n}\ndiv#actions {\n\tborder-color: rgba(255, 255, 255, .25);\n\tbackground-color: rgba(255, 255, 255, .05);\n}\ninput[type=\"radio\"] {\n    background: #2d2d2d;\n    border-color: #6b6b6b;\n}\ninput[type=\"radio\"]:checked:after {\n    background-color: #bdbdbd;\n}\n.onoffswitch input:checked + span, .onoffswitch input:checked + span::before {\n    border-color: rgba(0, 255, 193, .3);\n}\n.onoffswitch input:checked + span {\n    background-color: rgba(0, 255, 193, .25);\n}\n.onoffswitch span {\n\tborder-color: rgba(45, 45, 45, .3);\n    background-color: rgba(45, 45, 45, .25);\n}\n.onoffswitch span::before {\n\tbackground-color: #353535;\n}\ninput[type=\"color\"] {\n\tbackground-color: var(--bg-input);\n\tborder-color: rgba(255, 255, 255, .12);\n\tborder-radius: 4px;\n}\n.items label span a {\n\tcolor: var(--white-200);\n}\n.items label span a svg {\n\tfill: #6b6b6b;\n}\n.svg-inline-wrapper:hover .svg-icon {\n\tfill: var(--white-200);\n}\n#message-box-buttons button:not(:disabled):hover {\n    background-color: var(--bg-button-hover);\n    border-color: var(--border-button-hover);\n}\n#search-results .lds-spinner {\n\tfilter: invert(0);\n}\n#hotkey-info div {\n\tbackground-color: var(--bg-hotkey-info);\n\tborder-color: var(--border-hotkey-info);\n\tbackdrop-filter: blur(1rem);\n\t-webkit-backdrop-filter: blur(1rem);\n\tborder-radius: 6px;\n}\n#hotkey-info mark {\n\tbackground: var(--bg-hotkey);\n\tborder-color: var(--border-hotkey);\n}\nmark {\n\tcolor: var(--white-200);\n}\n#hotkey-info[data-active] {\n\tborder-color: var(--border-hotkey);\n\tborder-radius: 7px;\n}\n#hotkey-info div a, .newUI .applies-to .expander, [class=\".external-support\"] {\n\tcolor: var(--white-200);\n}\n#hotkey-info div a:hover, .newUI .applies-to .expander:hover, [class=\".external-support\"]:hover {\n\tcolor: var(--grey-900);\n}\n#hotkey-info div:nth-of-type(2) {\n\tborder-radius: 0 0 6px 6px;\n}\n.newUI .entry {\n\ttransition: all .18s ease-in-out;\n}\n.newUI .entry:hover {\n\tbackground: linear-gradient(to right, hsla(180, 50%, 46%, .2), hsla(180, 23%, 46%, .05) 50%, transparent);\n}\n#confirm > div {\n\tbackground-color: var(--bg-confirmation);\n\tborder-color: var(--border-confirmation);\n\tbackdrop-filter: blur(1rem);\n\t-webkit-backdrop-filter: blur(1rem);\n}\n.warnings {\n\tbackground-color: var(--bg-warning);\n\tborder-color: var(--border-warning);\n}\n.external-link div ul li a, a[id=\"usw-url\"], span.meta-author a, [class=\".external-support\"] {\n\tcolor: #fff;\n}\n.external-link div ul li a:hover, a[id=\"usw-url\"]:hover, [class=\".external-support\"]:hover, span.meta-author a:hover {\n\tcolor: #999;\n}\n[data-error]::after {\n\tcolor: hsl(0, 100%, 43%);\n}\n[data-error] .search-result-meta {\n    background: #6f2f2fcc;\n}\n[data-error], [data-error]:hover {\n    border-color: red;\n    background: #6f2f2fcc;\n}\n#search-replace-dialog[data-type=\"replace\"] button:hover svg, #search-replace-dialog svg:hover {\n\tfill: var(--white-200);\n}\n.config-reset-icon .svg-icon {\n\tfill: #6b6b6b;\n}\n.CodeMirror-line::selection, .CodeMirror-line > span::selection, .CodeMirror-line > span > span::selection { background: #6354e16b; }\n.CodeMirror-line::-moz-selection, .CodeMirror-line > span::-moz-selection, .CodeMirror-line > span > span::-moz-selection { background: #6354e16b; }\n#help-popup .contents a {\n\tcolor: var(--white-200);\n}\n#help-popup .contents a:hover {\n\tcolor: var(--grey-900);\n}\n\n.colorpicker-theme-light {\n\t--main-background-color: var(--bg-body);\n\t--main-border-color: #3b3b3b;\n\t--label-color: var(--grey-900);\n\t--label-color-hover: var(--white-200);\n\t--input-background-color: var(--bg-body);\n\t--input-background-color-hover: #2f2f2f;\n\t--input-background-color-focus: var(--bg-body);\n\t--input-color: #bbb;\n\t--input-color-focus: #fff;\n\t--input-border-color: #4a4a4a;\n\t--input-border-color-focus: #888;\n\t--input-border-color-hover: #bbb;\n\t--invalid-border-color: hsl(0, 100%, 50%);\n\t--invalid-background-color: hsla(0, 100%, 50%, 0.15);\n\t--invalid-color: hsl(0, 100%, 40%);\n}\n}",
    "usercssData": {
      "name": "Stylus Modern Dark Theme",
      "namespace": "github.com/blyad2137/stylus-modern-dark-theme",
      "version": "1.1.0",
      "description": "As in title.",
      "author": "blyad (https://github.com/blyad2137)",
      "license": "CC BY-NC-SA 4.0",
      "homepageURL": "https://github.com/blyad2137/stylus-modern-dark-theme",
      "supportURL": "https://github.com/blyad2137/stylus-modern-dark-theme/issues",
      "updateURL": "https://userstyles.world/api/style/498.user.css"
    },
    "author": "blyad (https://github.com/blyad2137)",
    "description": "As in title.",
    "name": "Stylus Modern Dark Theme",
    "originalDigest": "27dbb19ce80e09d1d02c3c17d72d722b02bd0a61",
    "_id": "5e36e926-ff67-4788-9068-f5c09a5c546c",
    "_rev": 1641178674600,
    "id": 3,
    "_usw": {}
  },
  {
    "enabled": true,
    "updateUrl": null,
    "url": null,
    "installDate": 1641182694000,
    "name": "redirect.invidious.io",
    "sections": [
      {
        "code": ".banner .logo {\n    background-image: url(/static/img/invidious-logo-dark.svg?static=25c5cd3acc)\n}\n:root {\n    --bg-primary: #161821;\n    --bg-secondary: #6b7089;\n    --bg-tertiary: #6b7089;\n    --fg-header: #c6c8d1;\n    --fg-primary: #c6c8d1;\n    --fg-link: #84a0c6;\n    --edge-mark: #0000;\n    --edge-table: #0000;\n}",
        "domains": [
          "redirect.invidious.io"
        ]
      }
    ],
    "updateDate": 1641183011900,
    "_id": "7d381b9f-f8b2-4bb1-9db8-3beb335a0e5e",
    "_rev": 1641183011900,
    "id": 5,
    "_usw": {}
  }
]